…
    working-with-data-3 
    question 
    diamonds
# A tibble: 53,940 × 10
   carat cut       color clarity depth table price     x     y     z
   <dbl> <ord>     <ord> <ord>   <dbl> <dbl> <int> <dbl> <dbl> <dbl>
 1  0.23 Ideal     E     SI2      61.5    55   326  3.95  3.98  2.43
 2  0.21 Premium   E     SI1      59.8    61   326  3.89  3.84  2.31
 3  0.23 Good      E     VS1      56.9    65   327  4.05  4.07  2.31
 4  0.29 Premium   I     VS2      62.4    58   334  4.2   4.23  2.63
 5  0.31 Good      J     SI2      63.3    58   335  4.34  4.35  2.75
 6  0.24 Very Good J     VVS2     62.8    57   336  3.94  3.96  2.48
 7  0.24 Very Good I     VVS1     62.3    57   336  3.95  3.98  2.47
 8  0.26 Very Good H     SI1      61.9    55   337  4.07  4.11  2.53
 9  0.22 Fair      E     VS2      65.1    61   337  3.87  3.78  2.49
10  0.23 Very Good H     VS1      59.4    61   338  4     4.05  2.39
# ℹ 53,930 more rows
# ℹ Use `print(n = ...)` to see more rows 
…
    working-with-data-6 
    question 
    slice_sample(diamonds, n=4)
# A tibble: 4 × 10
  carat cut     color clarity depth table price     x     y     z
  <dbl> <ord>   <ord> <ord>   <dbl> <dbl> <int> <dbl> <dbl> <dbl>
1  0.51 Ideal   E     VS2      61.7    53  1709  5.2   5.18  3.2 
2  0.56 Ideal   H     SI1      61.9    58  1343  5.27  5.3   3.27
3  0.45 Fair    F     VS2      67      56   923  4.77  4.7   3.17
4  0.32 Premium H     SI1      62      58   591  4.39  4.38  2.72 

    working-with-data-7 
    question 
    print(diamonds)
# A tibble: 53,940 × 10
   carat cut       color clarity depth table price     x     y     z
   <dbl> <ord>     <ord> <ord>   <dbl> <dbl> <int> <dbl> <dbl> <dbl>
 1  0.23 Ideal     E     SI2      61.5    55   326  3.95  3.98  2.43
 2  0.21 Premium   E     SI1      59.8    61   326  3.89  3.84  2.31
 3  0.23 Good      E     VS1      56.9    65   327  4.05  4.07  2.31
 4  0.29 Premium   I     VS2      62.4    58   334  4.2   4.23  2.63
 5  0.31 Good      J     SI2      63.3    58   335  4.34  4.35  2.75
 6  0.24 Very Good J     VVS2     62.8    57   336  3.94  3.96  2.48
 7  0.24 Very Good I     VVS1     62.3    57   336  3.95  3.98  2.47
 8  0.26 Very Good H     SI1      61.9    55   337  4.07  4.11  2.53
 9  0.22 Fair      E     VS2      65.1    61   337  3.87  3.78  2.49
10  0.23 Very Good H     VS1      59.4    61   338  4     4.05  2.39
# ℹ 53,930 more rows
# ℹ Use `print(n = ...)` to see more rows 

    working-with-data-8 
    question 
    print(diamonds, n=3)
# A tibble: 53,940 × 10
  carat cut     color clarity depth table price     x     y     z
  <dbl> <ord>   <ord> <ord>   <dbl> <dbl> <int> <dbl> <dbl> <dbl>
1  0.23 Ideal   E     SI2      61.5    55   326  3.95  3.98  2.43
2  0.21 Premium E     SI1      59.8    61   326  3.89  3.84  2.31
3  0.23 Good    E     VS1      56.9    65   327  4.05  4.07  2.31
# ℹ 53,937 more rows
# ℹ Use `print(n = ...)` to see more rows 
…
    generative-ai-1 
    question 
    R is an open-source programming language and environment designed for statistical computing, data analysis, and visualization, widely used in academia and industry for working with complex datasets. 

    generative-ai-2 
    question 
    diamonds
# A tibble: 53,940 × 10
   carat cut       color clarity depth table price     x     y     z
   <dbl> <ord>     <ord> <ord>   <dbl> <dbl> <int> <dbl> <dbl> <dbl>
 1  0.23 Ideal     E     SI2      61.5    55   326  3.95  3.98  2.43
 2  0.21 Premium   E     SI1      59.8    61   326  3.89  3.84  2.31
 3  0.23 Good      E     VS1      56.9    65   327  4.05  4.07  2.31
 4  0.29 Premium   I     VS2      62.4    58   334  4.2   4.23  2.63
 5  0.31 Good      J     SI2      63.3    58   335  4.34  4.35  2.75
 6  0.24 Very Good J     VVS2     62.8    57   336  3.94  3.96  2.48
 7  0.24 Very Good I     VVS1     62.3    57   336  3.95  3.98  2.47
 8  0.26 Very Good H     SI1      61.9    55   337  4.07  4.11  2.53
 9  0.22 Fair      E     VS2      65.1    61   337  3.87  3.78  2.49
10  0.23 Very Good H     VS1      59.4    61   338  4     4.05  2.39
# ℹ 53,930 more rows
# ℹ Use `print(n = ...)` to see more rows 

    generative-ai-3 
    question 
    diamonds |>
+     dplyr::group_by(cut, color) |>
+     dplyr::summarise(avg_carat = mean(carat, na.rm = TRUE), .groups = "drop")
# A tibble: 35 × 3
   cut   color avg_carat
   <ord> <ord>     <dbl>
 1 Fair  D         0.920
 2 Fair  E         0.857
 3 Fair  F         0.905
 4 Fair  G         1.02 
 5 Fair  H         1.22 
 6 Fair  I         1.20 
 7 Fair  J         1.34 
 8 Good  D         0.745
 9 Good  E         0.745
10 Good  F         0.776
# ℹ 25 more rows
# ℹ Use `print(n = ...)` to see more rows 
…
